{"count":6574,"page":1,"totalPages":2192,"nextPage":2,"previousPage":0,"showingFrom":1,"showingTo":3,"items":[{"id":43764,"tipo":"Notícia","titulo":"Brasil inicia dia 24/06, em Brasília, o Programa Nacional de Inteligência e Governança Estatística e Geocientífica para subsidiar Políticas Públicas Preditivas","introducao":"No próximo dia 24 de junho, das 10h às 12h, no edifício do Serpro, em Brasília (SGAN Quadra 601, Módulo \"V\"), será lançado o Programa Nacional de Inteligência e Governança Estatística e Geocientífica para subsidiar Políticas Públicas Preditivas, com a...","data_publicacao":"18/06/2025 05:32:55","produto_id":0,"produtos":"","editorias":"ibge","imagens":"{\"image_intro\":\"images\\/agenciadenoticias\\/ibge\\/2025_06\\/serpro-home.jpg\",\"float_intro\":\"\",\"image_intro_alt\":\"\",\"image_intro_caption\":\"\",\"image_fulltext\":\"images\\/agenciadenoticias\\/ibge\\/2025_06\\/serpro-home.jpg\",\"float_fulltext\":\"\",\"image_fulltext_alt\":\"\",\"image_fulltext_caption\":\"\"}","produtos_relacionados":"","destaque":true,"link":"http://agenciadenoticias.ibge.gov.br/agencia-noticias/2012-agencia-de-noticias/noticias/43764-brasil-inicia-dia-24-06-em-brasilia-o-programa-nacional-de-inteligencia-e-governanca-estatistica-e-geocientifica-para-subsidiar-politicas-publicas-preditivas.html"},{"id":43751,"tipo":"Notícia","titulo":"Em Brasília, IBGE divulgará resultados de fecundidade e migração do Censo Demográfico 2022","introducao":"O Instituto Brasileiro de Geografia e Estatística (IBGE) divulgará, no dia 27 de junho, às 10h, em Brasília (DF), o Censo Demográfico 2022: Fecundidade e migração: Resultados preliminares da amostra. O evento ocorrerá no Auditório do Instituto de Química...","data_publicacao":"18/06/2025 10:25:37","produto_id":0,"produtos":"","editorias":"ibge;censo2020","imagens":"{\"image_intro\":\"images\\/agenciadenoticias\\/ibge\\/2025_06\\/Agncia-Intranet_875x485px_Fecundidade_Migrao_3_01.jpg\",\"float_intro\":\"\",\"image_intro_alt\":\"\",\"image_intro_caption\":\"\",\"image_fulltext\":\"images\\/agenciadenoticias\\/ibge\\/2025_06\\/Agncia-Intranet_875x485px_Fecundidade_Migrao_3_01.jpg\",\"float_fulltext\":\"\",\"image_fulltext_alt\":\"\",\"image_fulltext_caption\":\"\"}","produtos_relacionados":"","destaque":true,"link":"http://agenciadenoticias.ibge.gov.br/agencia-noticias/2012-agencia-de-noticias/noticias/43751-em-brasilia-ibge-divulgara-resultados-de-fecundidade-e-migracao-do-censo-demografico-2022.html"},{"id":43747,"tipo":"Notícia","titulo":"MPO publica no Diário Oficial recriação do Conselho Técnico do IBGE","introducao":"Órgão de assessoramento previsto em Lei, Conselho foi recriadoa pedido da atual administração do IBGE  Após duas décadas sem funcionamento, a presidência comunica a recriação do Conselho Técnico do IBGE, órgão colegiado estratégico de assessoramento e...","data_publicacao":"17/06/2025 11:37:46","produto_id":0,"produtos":"","editorias":"ibge","imagens":"{\"image_intro\":\"images\\/agenciadenoticias\\/ibge\\/_Comunicado-Presidencia.jpg\",\"float_intro\":\"\",\"image_intro_alt\":\"\",\"image_intro_caption\":\"\",\"image_fulltext\":\"images\\/agenciadenoticias\\/ibge\\/_Comunicado-Presidencia.jpg\",\"float_fulltext\":\"\",\"image_fulltext_alt\":\"\",\"image_fulltext_caption\":\"\"}","produtos_relacionados":"","destaque":true,"link":"http://agenciadenoticias.ibge.gov.br/agencia-noticias/2012-agencia-de-noticias/noticias/43747-mpo-publica-no-diario-oficial-recriacao-do-conselho-tecnico-do-ibge.html"}]}